<svg width="283" height="32" viewBox="0 0 283 32" fill="none" xmlns="http://www.w3.org/2000/svg">
<path fill-rule="evenodd" clip-rule="evenodd" d="M18.5203 3.48193C19.9906 1.89472 22.0295 0.995312 24.1624 0.993146C27.02 1.00393 29.6478 2.60351 31.0291 5.17302C32.2502 4.61545 33.5724 4.3293 34.9087 4.33335C40.2059 4.33335 44.5008 8.7836 44.5008 14.2734C44.5008 19.7631 40.2059 24.2134 34.9087 24.2134C34.2741 24.2137 33.6409 24.149 33.0188 24.0202C31.2053 27.354 27.174 28.6545 23.8305 26.9843C22.5509 30.0915 19.5523 32.0795 16.2688 31.9976C12.9852 31.9157 10.0841 29.7805 8.95281 26.6131C8.45088 26.7235 7.93911 26.7798 7.4258 26.7811C3.3287 26.7676 1.49833e-05 23.3166 1.49833e-05 19.0595C-0.00530834 16.3142 1.40816 13.7723 3.71291 12.3824C1.9913 8.26731 3.52391 3.47942 7.28707 1.21669C11.0502 -1.04603 15.865 -0.0746958 18.5154 3.48193H18.5203ZM6.44802 16.5826C6.42488 16.6455 6.44705 16.6665 6.4608 16.6795C6.46356 16.6822 6.46599 16.6845 6.46763 16.6867C6.93354 17.0133 7.48804 17.1802 8.05187 17.1636C8.96415 17.1636 9.53147 16.6598 9.53147 15.8622V15.847C9.53147 15.1048 8.89221 14.8394 8.2922 14.6396L8.21373 14.6144C7.76085 14.4633 7.37011 14.3323 7.37011 14.0266V14.0115C7.37011 13.7495 7.599 13.5564 7.95214 13.5564C8.35612 13.565 8.75274 13.669 9.11129 13.8604C9.11129 13.8604 9.19958 13.9192 9.23228 13.8318L9.41702 13.318C9.43022 13.2763 9.41134 13.2311 9.37288 13.2122C8.97589 12.9745 8.52442 12.8499 8.06495 12.8511H7.97339C7.13795 12.8511 6.55429 13.37 6.55429 14.1123V14.1274C6.55429 14.91 7.19844 15.1652 7.80009 15.3416L7.89655 15.3718C8.33634 15.5095 8.71401 15.6304 8.71401 15.9461V15.9612C8.71401 16.2518 8.46714 16.465 8.07149 16.465C7.65517 16.4683 7.24686 16.3476 6.89598 16.1174C6.85218 16.0909 6.82073 16.0699 6.78943 16.049L6.78937 16.049L6.78824 16.0482C6.77437 16.039 6.7605 16.0297 6.74557 16.02C6.72581 16.0029 6.69877 15.9977 6.67433 16.0063C6.64989 16.0149 6.63163 16.036 6.62622 16.062L6.44802 16.5826ZM19.823 16.6795C19.8093 16.6665 19.7871 16.6455 19.8103 16.5826L19.9885 16.062C19.9954 16.0371 20.0137 16.0173 20.0375 16.009C20.0613 16.0006 20.0875 16.0047 20.1078 16.02C20.1232 16.03 20.1374 16.0395 20.1517 16.049L20.1517 16.049C20.183 16.0699 20.2144 16.0909 20.2582 16.1174C20.6091 16.3476 21.0174 16.4683 21.4337 16.465C21.8294 16.465 22.0762 16.2518 22.0762 15.9612V15.9461C22.0762 15.6304 21.6986 15.5095 21.2588 15.3718L21.1623 15.3416C20.5607 15.1652 19.9165 14.91 19.9165 14.1274V14.1123C19.9165 13.37 20.5002 12.8511 21.3356 12.8511H21.4272C21.8867 12.8499 22.3381 12.9745 22.7351 13.2122C22.7736 13.2311 22.7925 13.2763 22.7793 13.318L22.5945 13.8318C22.5618 13.9192 22.4735 13.8604 22.4735 13.8604C22.115 13.669 21.7183 13.565 21.3144 13.5564C20.9612 13.5564 20.7323 13.7495 20.7323 14.0115V14.0266C20.7323 14.3323 21.1231 14.4633 21.576 14.6144L21.6544 14.6396C22.2544 14.8394 22.8937 15.1048 22.8937 15.847V15.8622C22.8937 16.6598 22.3264 17.1636 21.4141 17.1636C20.8502 17.1806 20.2956 17.0136 19.8299 16.6867L19.8283 16.6848L19.8269 16.6833L19.823 16.6795ZM29.6935 14.1675C29.6236 13.9218 29.5056 13.6933 29.3469 13.4958C29.1872 13.3008 28.9873 13.1448 28.7616 13.039C28.2385 12.8151 27.6499 12.8151 27.1267 13.039C26.901 13.1448 26.7011 13.3008 26.5414 13.4958C26.3827 13.6933 26.2648 13.9218 26.1948 14.1675C26.0457 14.7169 26.0457 15.2976 26.1948 15.8469C26.2648 16.0926 26.3828 16.3211 26.5414 16.5186C26.7006 16.7133 26.9007 16.8684 27.1267 16.972C27.6507 17.1917 28.2376 17.1917 28.7616 16.972C28.9876 16.8684 29.1878 16.7133 29.3469 16.5186C29.5055 16.3211 29.6235 16.0926 29.6935 15.8469C29.8426 15.2976 29.8426 14.7169 29.6935 14.1675ZM28.688 16.0729C28.867 15.75 28.9516 15.3809 28.9316 15.0099V15.0082C28.9523 14.6382 28.8677 14.2699 28.688 13.9485C28.5232 13.6974 28.2396 13.5569 27.9457 13.5807C27.653 13.5581 27.3709 13.6985 27.2068 13.9485C26.8855 14.6182 26.8855 15.4032 27.2068 16.0729C27.3701 16.3242 27.6523 16.4659 27.9457 16.444C28.2403 16.4671 28.524 16.3253 28.688 16.0729ZM35.9505 16.3237C35.9447 16.3033 35.9307 16.2864 35.9119 16.2774C35.8931 16.2684 35.8714 16.2681 35.8524 16.2767C35.7381 16.3243 35.6192 16.3592 35.4977 16.3808C35.3597 16.4019 35.2203 16.412 35.0808 16.4111C34.7574 16.4289 34.4415 16.3071 34.2093 16.0752C33.9984 15.8518 33.8824 15.4925 33.8824 15.0055C33.8662 14.638 33.9691 14.2753 34.175 13.9743C34.3786 13.7121 34.6944 13.569 35.0203 13.5915C35.2934 13.5865 35.5656 13.6268 35.8263 13.7107C35.8263 13.7107 35.8851 13.7376 35.9146 13.6569L35.9682 13.5055C36.0113 13.3842 36.0511 13.2721 36.1026 13.1229C36.1092 13.1042 36.1078 13.0835 36.0988 13.066C36.0897 13.0484 36.0739 13.0355 36.0552 13.0306C35.8898 12.9711 35.7197 12.9267 35.5467 12.8979C35.3572 12.8703 35.1659 12.8574 34.9745 12.8593C34.6828 12.8534 34.3931 12.9106 34.1243 13.0272C33.8919 13.1326 33.6844 13.2885 33.5161 13.484C33.3496 13.6799 33.2233 13.9084 33.145 14.1557C33.0605 14.4271 33.0186 14.7105 33.0208 14.9954C33.0208 15.6453 33.1843 16.1709 33.5276 16.5538C33.8709 16.9367 34.3712 17.1349 35.0317 17.1349C35.4 17.135 35.7654 17.0679 36.1108 16.9367C36.1436 16.9195 36.1573 16.8787 36.1418 16.8443L35.9505 16.3237ZM39.521 13.4016C39.6721 13.5816 39.7837 13.793 39.848 14.0213C39.9485 14.3869 39.9763 14.7696 39.9297 15.1465C39.9255 15.1858 39.893 15.2156 39.8545 15.2153H37.2762C37.291 15.6184 37.3858 15.9039 37.5754 16.097C37.8179 16.3169 38.1354 16.4293 38.4583 16.4093C38.8212 16.4243 39.1828 16.3572 39.5177 16.2129C39.5366 16.2059 39.5574 16.2069 39.5755 16.2157C39.5936 16.2246 39.6075 16.2405 39.6142 16.2599L39.7777 16.7452C39.812 16.8258 39.7858 16.8544 39.7564 16.8712C39.6011 16.9686 39.2022 17.1365 38.4566 17.1365C38.1382 17.1441 37.8211 17.0912 37.5215 16.9803C37.0277 16.7965 36.6485 16.3826 36.4997 15.8652C36.4205 15.5928 36.3814 15.3098 36.3836 15.0256C36.3821 14.7416 36.4201 14.4588 36.4964 14.1859C36.566 13.9342 36.6851 13.6999 36.8463 13.4974C37.008 13.299 37.2107 13.1401 37.4397 13.0322C37.7085 12.9135 37.9991 12.8562 38.2915 12.8643C38.5455 12.8639 38.7969 12.9165 39.0305 13.0188C39.218 13.1101 39.385 13.2405 39.521 13.4016ZM37.2764 14.5772C37.3008 14.356 37.3716 14.1429 37.484 13.9525C37.6439 13.6967 37.9259 13.5496 38.2213 13.5679C38.5124 13.5515 38.7892 13.6988 38.944 13.9525C39.0485 14.1434 39.1047 14.3582 39.1075 14.5772H37.2764ZM18.8671 13.4016C19.0183 13.5816 19.1298 13.793 19.1941 14.0213C19.2956 14.3867 19.3245 14.7694 19.2791 15.1465C19.2749 15.1858 19.2425 15.2156 19.2039 15.2153H16.6257C16.6404 15.6184 16.7352 15.9039 16.9248 16.097C17.1673 16.3169 17.4848 16.4293 17.8077 16.4093C18.1706 16.4244 18.5323 16.3573 18.8671 16.2129C18.886 16.2059 18.9068 16.2069 18.9249 16.2157C18.943 16.2246 18.9569 16.2405 18.9636 16.2599L19.1271 16.7452C19.1614 16.8258 19.1336 16.8544 19.1058 16.8712C18.9505 16.9686 18.5516 17.1365 17.8061 17.1365C17.4871 17.1443 17.1695 17.0914 16.8693 16.9803C16.3754 16.7967 15.996 16.3827 15.8474 15.8652C15.7674 15.593 15.7278 15.3099 15.7297 15.0256C15.7282 14.7416 15.7662 14.4588 15.8425 14.1859C15.9124 13.9343 16.0314 13.7001 16.1924 13.4974C16.3542 13.299 16.5569 13.1401 16.7859 13.0322C17.0546 12.9135 17.3452 12.8562 17.6377 12.8643C17.8916 12.864 18.143 12.9166 18.3766 13.0188C18.5641 13.1102 18.7311 13.2406 18.8671 13.4016ZM16.6289 14.5772C16.6534 14.356 16.7243 14.1429 16.8365 13.9525C16.9964 13.6967 17.2785 13.5496 17.5739 13.5679C17.8649 13.5515 18.1417 13.6988 18.2965 13.9525C18.4009 14.1435 18.4571 14.3582 18.46 14.5772H16.6289ZM11.9219 14.4442L11.9219 14.4442C11.9804 14.4468 12.0332 14.4492 12.0798 14.4492C12.0798 14.4492 12.2826 14.4693 12.5131 14.4945V14.382C12.5131 14.0293 12.4412 13.8614 12.3006 13.7506C12.1113 13.6252 11.8876 13.5663 11.6629 13.5826C11.2737 13.5852 10.89 13.677 10.5397 13.8513C10.5261 13.8596 10.5119 13.8669 10.4972 13.8731C10.4803 13.8795 10.4617 13.8784 10.4456 13.8701C10.4295 13.8619 10.4174 13.8472 10.4122 13.8295L10.2291 13.3257C10.2099 13.2895 10.2196 13.2443 10.252 13.2199C10.4842 13.0335 11.0466 12.921 11.0466 12.921C11.275 12.8798 11.5063 12.8579 11.7381 12.8555C12.2548 12.8555 12.6504 12.9713 12.9235 13.2216C13.1965 13.4718 13.3338 13.8664 13.3338 14.3971V16.8204C13.3369 16.8602 13.3123 16.8967 13.275 16.9077C13.275 16.9077 13.1834 16.9346 13.0935 16.9547C13.0036 16.9749 12.6929 17.0404 12.4395 17.084C12.1808 17.1288 11.9188 17.1512 11.6564 17.1512C11.4267 17.1533 11.1975 17.129 10.973 17.079C10.7845 17.0385 10.606 16.959 10.4482 16.8456C10.304 16.7383 10.1882 16.5957 10.1114 16.4308C10.0283 16.241 9.98805 16.0343 9.99368 15.8262C9.98217 15.4108 10.1744 15.0172 10.5054 14.7783C10.6683 14.6604 10.8505 14.5733 11.0433 14.5214C11.2503 14.4651 11.4635 14.4368 11.6776 14.4374C11.7674 14.4374 11.849 14.441 11.9219 14.4442ZM11.0534 16.3114C10.9934 16.2703 10.9427 16.2165 10.9046 16.1535C10.8478 16.0486 10.8212 15.9292 10.8278 15.8093C10.813 15.609 10.9002 15.4152 11.0583 15.2971C11.0583 15.2971 11.2807 15.0989 11.8071 15.1056C12.0414 15.1096 12.2752 15.1298 12.5068 15.1661V16.3735C12.277 16.4214 12.0444 16.4534 11.8104 16.4693C11.2807 16.4978 11.0518 16.3114 11.0534 16.3114ZM32.8815 13.028C32.8889 13.0461 32.8888 13.0664 32.8813 13.0844C32.872 13.118 32.8378 13.2179 32.8007 13.3264L32.8005 13.3268L32.8004 13.3271C32.7596 13.4462 32.7154 13.5754 32.6966 13.6386C32.6786 13.6856 32.6508 13.7108 32.6018 13.7108C32.5088 13.6896 32.4141 13.6778 32.3189 13.6756C32.2017 13.6756 32.085 13.6925 31.9723 13.7259C31.8522 13.7641 31.7429 13.8315 31.6535 13.9224C31.5501 14.0327 31.4728 14.166 31.4279 14.312C31.3656 14.5381 31.337 14.7725 31.3429 15.0073V16.9872C31.3429 17.0317 31.3077 17.0678 31.2644 17.0678H30.5859C30.5426 17.0678 30.5074 17.0317 30.5074 16.9872V13.0357C30.5066 13.015 30.5139 12.9947 30.5277 12.9795C30.5416 12.9644 30.5608 12.9556 30.581 12.9551H31.235C31.2552 12.9556 31.2744 12.9644 31.2883 12.9795C31.3021 12.9947 31.3094 13.015 31.3085 13.0357V13.3582C31.4261 13.2122 31.5757 13.0971 31.7451 13.0223C31.9534 12.9254 32.1832 12.8877 32.4105 12.9131C32.5564 12.9241 32.7009 12.9494 32.8421 12.9887C32.8599 12.9958 32.8741 13.01 32.8815 13.028ZM26.5212 11.2536C26.4375 11.2276 26.3523 11.2069 26.2661 11.1915C26.1506 11.1715 26.0335 11.1619 25.9163 11.1629C25.5139 11.1379 25.1191 11.2836 24.8242 11.566C24.5355 11.9021 24.3545 12.3213 24.3059 12.7667L24.2748 12.9464H23.6895C23.6458 12.946 23.6086 12.9791 23.6029 13.0236L23.5064 13.5744C23.5064 13.6265 23.5211 13.6601 23.5914 13.6601H24.1604L23.5816 16.9751C23.5476 17.1968 23.4962 17.4152 23.4279 17.6284C23.3875 17.7627 23.3268 17.8896 23.2481 18.0045C23.1912 18.0915 23.1087 18.1574 23.0127 18.1926C22.9143 18.2245 22.8117 18.2398 22.7086 18.238C22.6388 18.2365 22.5693 18.2286 22.5009 18.2145C22.453 18.2045 22.4063 18.1887 22.362 18.1674C22.3442 18.1603 22.3244 18.1607 22.3069 18.1686C22.2894 18.1765 22.2757 18.1912 22.2688 18.2094C22.2475 18.2648 22.0955 18.6948 22.0775 18.7485C22.0687 18.7678 22.068 18.79 22.0753 18.8099C22.0827 18.8298 22.0977 18.8458 22.1167 18.8543C22.1937 18.8829 22.2723 18.9064 22.3522 18.9248C22.4761 18.9529 22.6029 18.9653 22.7298 18.9618C22.9448 18.9656 23.1588 18.9315 23.3625 18.861C23.5463 18.7913 23.7103 18.6759 23.8399 18.5251C23.9855 18.3513 24.0966 18.1499 24.1669 17.9323C24.2689 17.6434 24.345 17.3455 24.3942 17.0423L24.9746 13.6651H25.8313C25.875 13.6655 25.9121 13.6324 25.9179 13.5879L26.0144 13.0371C26.0144 12.985 25.9997 12.9514 25.9294 12.9514H25.1119C25.1404 12.7485 25.1858 12.5485 25.2476 12.3536C25.2869 12.2468 25.3489 12.1505 25.4291 12.0714C25.4892 12.0084 25.5632 11.9612 25.6449 11.9337C25.7344 11.9056 25.8276 11.892 25.9212 11.8934C25.9926 11.8935 26.0638 11.9008 26.1337 11.9153C26.2116 11.9316 26.2431 11.9416 26.2643 11.9483L26.2661 11.9488C26.3495 11.9757 26.361 11.9488 26.3773 11.9085L26.5751 11.3527C26.5841 11.3323 26.5832 11.3087 26.5725 11.2891C26.5619 11.2696 26.5428 11.2564 26.5212 11.2536ZM14.9786 17.0385C14.9925 17.0233 14.9998 17.003 14.9989 16.9822V11.3346C15.0002 11.3137 14.9931 11.2932 14.9791 11.2779C14.9652 11.2626 14.9457 11.254 14.9253 11.254H14.2419C14.2217 11.2544 14.2025 11.2632 14.1886 11.2784C14.1748 11.2936 14.1675 11.3138 14.1683 11.3346V16.9822C14.1675 17.003 14.1748 17.0233 14.1886 17.0385C14.2025 17.0536 14.2217 17.0624 14.2419 17.0629H14.9253C14.9456 17.0624 14.9648 17.0536 14.9786 17.0385Z" fill="#00A1E0"/>
<path d="M61.5168 22V15.232H63.6528C67.5168 15.232 69.5808 13 69.5808 9.736C69.5808 6.592 67.5888 4.24 63.6288 4.24H58.2288V22H61.5168ZM61.5168 12.16V7.312H62.6928C65.6688 7.312 66.2928 8.344 66.2928 9.736C66.2928 11.032 65.7168 12.16 62.6688 12.16H61.5168ZM84.1625 22V8.68H81.2345V10.36H81.1865C80.4905 9.328 78.6425 8.224 76.7705 8.224C72.9065 8.224 70.0985 11.392 70.0985 15.256C70.0985 19.288 72.8105 22.432 76.5545 22.432C78.2105 22.432 80.1785 21.592 81.2345 20.344V22H84.1625ZM77.2505 19.504C74.9945 19.504 73.2905 17.632 73.2905 15.4C73.2905 13.024 74.9945 11.152 77.2265 11.152C79.5305 11.152 81.1385 12.976 81.1385 15.304C81.1385 17.584 79.5785 19.504 77.2505 19.504ZM89.5182 22V14.416C89.5182 12.424 90.5022 11.392 92.4222 11.32V8.224H92.3502C90.8382 8.224 90.1422 8.608 89.3022 9.856H89.2542V8.68H86.3262V22H89.5182ZM97.7465 22V11.512H99.6665V8.68H97.7465V4.24H94.5545V8.68H92.9945V11.512H94.5545V22H97.7465ZM112.334 22V14.128C112.334 9.304 108.854 8.224 107.126 8.224C105.59 8.224 104.51 8.8 103.454 9.832V8.68H100.502V22H103.694V14.728C103.694 11.8 105.47 11.152 106.454 11.152C108.254 11.152 109.142 12.592 109.142 15.304V22H112.334ZM127.564 16.768C127.684 16.192 127.756 15.664 127.756 15.16C127.756 11.272 124.732 8.224 120.868 8.224C116.812 8.224 113.86 11.44 113.86 15.376C113.86 19.312 116.884 22.432 120.892 22.432C123.724 22.432 126.46 20.488 127.324 17.8H123.964C123.316 18.976 122.212 19.504 120.892 19.504C118.924 19.504 117.46 17.944 117.22 16.768H127.564ZM117.124 14.2C117.628 12.16 119.116 11.152 120.868 11.152C122.86 11.152 124.18 12.28 124.492 14.2H117.124ZM132.692 22V14.416C132.692 12.424 133.676 11.392 135.596 11.32V8.224H135.524C134.012 8.224 133.316 8.608 132.476 9.856H132.428V8.68H129.5V22H132.692ZM155.914 17.056C154.45 18.688 153.106 19.288 151.45 19.288C148.186 19.288 145.546 16.288 145.546 13.096C145.546 9.952 148.114 6.952 151.33 6.952C153.322 6.952 154.81 7.84 156.082 9.304H159.826C158.362 5.92 154.978 3.88 151.45 3.88C146.386 3.88 142.258 8.104 142.258 13.048C142.258 18.232 146.578 22.36 151.522 22.36C154.978 22.36 158.362 20.248 159.73 17.056H155.914ZM167.393 22.432C171.473 22.432 174.449 19.288 174.449 15.304C174.449 11.464 171.425 8.224 167.393 8.224C163.385 8.224 160.289 11.512 160.289 15.352C160.289 19.192 163.481 22.432 167.393 22.432ZM167.393 19.504C165.113 19.504 163.481 17.584 163.481 15.352C163.481 13.12 165.233 11.152 167.369 11.152C169.625 11.152 171.257 13.192 171.257 15.376C171.257 17.584 169.649 19.504 167.393 19.504ZM195.848 22V13.984C195.848 9.904 193.28 8.224 190.448 8.224C188.648 8.224 187.232 8.8 186.152 10.312C185.288 8.968 183.92 8.224 182.312 8.224C180.752 8.224 179.48 8.776 178.832 9.808H178.784V8.68H175.856V22H179.048V15.208C179.048 12.232 179.912 11.152 181.616 11.152C183.368 11.152 184.256 12.52 184.256 14.512V22H187.448V14.704C187.448 11.656 189.152 11.152 190.232 11.152C191.84 11.152 192.656 12.4 192.656 14.512V22H195.848ZM217.938 22V13.984C217.938 9.904 215.37 8.224 212.538 8.224C210.738 8.224 209.322 8.8 208.242 10.312C207.378 8.968 206.01 8.224 204.402 8.224C202.842 8.224 201.57 8.776 200.922 9.808H200.874V8.68H197.946V22H201.138V15.208C201.138 12.232 202.002 11.152 203.706 11.152C205.458 11.152 206.346 12.52 206.346 14.512V22H209.538V14.704C209.538 11.656 211.242 11.152 212.322 11.152C213.93 11.152 214.746 12.4 214.746 14.512V22H217.938ZM231.797 22V8.68H228.605V15.592C228.605 17.92 227.765 19.504 225.917 19.504C223.997 19.504 223.133 18.16 223.133 15.568V8.68H219.941V16.504C219.941 20.752 222.389 22.432 225.581 22.432C226.805 22.432 227.933 21.88 228.821 20.656H228.869V22H231.797ZM245.779 22V14.128C245.779 9.304 242.299 8.224 240.571 8.224C239.035 8.224 237.955 8.8 236.899 9.832V8.68H233.947V22H237.139V14.728C237.139 11.8 238.915 11.152 239.899 11.152C241.699 11.152 242.587 12.592 242.587 15.304V22H245.779ZM251.026 7.168V4.24H247.834V7.168H251.026ZM251.026 22V8.68H247.834V22H251.026ZM257.104 22V11.512H259.024V8.68H257.104V4.24H253.912V8.68H252.352V11.512H253.912V22H257.104ZM264.611 26.44L272.267 8.68H268.643L265.427 17.224L262.403 8.68H258.755L263.627 20.776L261.179 26.44H264.611Z" fill="#080707"/>
</svg>
